{
    "_links": {
        "self": {
            "href": "http:\/\/default\/node\/4?_format=hal_json"
        },
        "type": {
            "href": "http:\/\/drupal.org\/rest\/type\/node\/article"
        },
        "http:\/\/drupal.org\/rest\/relation\/node\/article\/revision_uid": [
            {
                "href": "http:\/\/default\/user\/1?_format=hal_json"
            }
        ],
        "http:\/\/drupal.org\/rest\/relation\/node\/article\/uid": [
            {
                "href": "http:\/\/default\/user\/1?_format=hal_json",
                "lang": "en"
            }
        ]
    },
    "nid": [
        {
            "value": 4
        }
    ],
    "uuid": [
        {
            "value": "9a057386-822e-4ede-9280-743968900935"
        }
    ],
    "vid": [
        {
            "value": 11
        }
    ],
    "langcode": [
        {
            "value": "en",
            "lang": "en"
        }
    ],
    "type": [
        {
            "target_id": "article"
        }
    ],
    "revision_timestamp": [
        {
            "value": "2019-06-02T10:16:10+00:00",
            "format": "Y-m-d\\TH:i:sP"
        }
    ],
    "_embedded": {
        "http:\/\/drupal.org\/rest\/relation\/node\/article\/revision_uid": [
            {
                "_links": {
                    "self": {
                        "href": "http:\/\/default\/user\/1?_format=hal_json"
                    },
                    "type": {
                        "href": "http:\/\/drupal.org\/rest\/type\/user\/user"
                    }
                },
                "uuid": [
                    {
                        "value": "ed854d8e-1da9-4808-8780-d8e2a6869d72"
                    }
                ]
            }
        ],
        "http:\/\/drupal.org\/rest\/relation\/node\/article\/uid": [
            {
                "_links": {
                    "self": {
                        "href": "http:\/\/default\/user\/1?_format=hal_json"
                    },
                    "type": {
                        "href": "http:\/\/drupal.org\/rest\/type\/user\/user"
                    }
                },
                "uuid": [
                    {
                        "value": "ed854d8e-1da9-4808-8780-d8e2a6869d72"
                    }
                ],
                "lang": "en"
            }
        ]
    },
    "status": [
        {
            "value": true,
            "lang": "en"
        }
    ],
    "title": [
        {
            "value": "Ut semper sit amet enim et tempus",
            "lang": "en"
        }
    ],
    "created": [
        {
            "value": "2019-05-29T20:15:10+00:00",
            "lang": "en",
            "format": "Y-m-d\\TH:i:sP"
        }
    ],
    "changed": [
        {
            "value": "2019-06-02T10:16:10+00:00",
            "lang": "en",
            "format": "Y-m-d\\TH:i:sP"
        }
    ],
    "promote": [
        {
            "value": false,
            "lang": "en"
        }
    ],
    "sticky": [
        {
            "value": false,
            "lang": "en"
        }
    ],
    "default_langcode": [
        {
            "value": true,
            "lang": "en"
        }
    ],
    "revision_translation_affected": [
        {
            "value": true,
            "lang": "en"
        }
    ],
    "path": [
        {
            "alias": null,
            "pid": null,
            "langcode": "en",
            "lang": "en"
        }
    ],
    "body": [
        {
            "value": "<p>Aliquam placerat quam lacinia enim placerat accumsan ut ultrices odio. Aenean leo elit, pharetra varius nunc non, faucibus pulvinar quam. Curabitur scelerisque, nibh et pretium faucibus, sapien sapien commodo est, non interdum justo erat sed urna. Mauris sed tortor tortor. Nunc ut maximus sapien, et volutpat augue. Quisque quis ullamcorper felis. Ut dignissim ante non tempor auctor. Vestibulum dapibus dui sed lorem porttitor blandit. Ut semper sit amet enim et tempus. Morbi vitae luctus erat. Nunc at pellentesque quam. Etiam porttitor dui nisi, at gravida velit consequat eu. Sed non tincidunt tellus. Nullam sed scelerisque ipsum, in bibendum justo. Curabitur ut pulvinar purus, ut venenatis risus.<\/p>\r\n\r\n<p>Praesent consequat in est eu blandit. Etiam ultricies convallis tellus, non tincidunt orci malesuada a. Nunc consequat diam ornare, feugiat odio at, porta erat. Curabitur imperdiet diam mi, eu bibendum mi pretium a. Phasellus consequat tellus vitae ante aliquam, vitae sodales nunc blandit. Integer eget eros pellentesque, tincidunt sem in, tincidunt nibh. Nulla porta felis leo, eu iaculis sem blandit quis.<\/p>\r\n",
            "format": "basic_html",
            "processed": "<p>Aliquam placerat quam lacinia enim placerat accumsan ut ultrices odio. Aenean leo elit, pharetra varius nunc non, faucibus pulvinar quam. Curabitur scelerisque, nibh et pretium faucibus, sapien sapien commodo est, non interdum justo erat sed urna. Mauris sed tortor tortor. Nunc ut maximus sapien, et volutpat augue. Quisque quis ullamcorper felis. Ut dignissim ante non tempor auctor. Vestibulum dapibus dui sed lorem porttitor blandit. Ut semper sit amet enim et tempus. Morbi vitae luctus erat. Nunc at pellentesque quam. Etiam porttitor dui nisi, at gravida velit consequat eu. Sed non tincidunt tellus. Nullam sed scelerisque ipsum, in bibendum justo. Curabitur ut pulvinar purus, ut venenatis risus.<\/p>\n\n<p>Praesent consequat in est eu blandit. Etiam ultricies convallis tellus, non tincidunt orci malesuada a. Nunc consequat diam ornare, feugiat odio at, porta erat. Curabitur imperdiet diam mi, eu bibendum mi pretium a. Phasellus consequat tellus vitae ante aliquam, vitae sodales nunc blandit. Integer eget eros pellentesque, tincidunt sem in, tincidunt nibh. Nulla porta felis leo, eu iaculis sem blandit quis.<\/p>",
            "summary": "",
            "lang": "en"
        }
    ],
    "comment": [
        {
            "status": 2,
            "cid": 0,
            "last_comment_timestamp": 1559187032,
            "last_comment_name": null,
            "last_comment_uid": 1,
            "comment_count": 0,
            "lang": "en"
        }
    ],
    "field_external_image": [
        {
            "value": "https:\/\/cdn.pixabay.com\/photo\/2018\/09\/07\/05\/33\/lines-3659995_1280.jpg"
        }
    ]
}